﻿firstName|lastName|email|email2|canton|initials
Gabin|Caldwell|velit.Cras.lorem@eros.org|et.malesuada.fames@ligula.ca|'Directeur'|Bs
Gilbert|Strong|ornare.Fusce@sagittis.co.uk|mollis.Phasellus@turpisNulla.com|'Directeur'|Ts
Maxence|Butler|lacus.Quisque.purus@quis.co.uk|conubia.nostra.per@AliquamnislNulla.net|'Directeur'|Gs
Alexis|Skinner|faucibus.ut.nulla@nisinibhlacinia.ca|neque.vitae.semper@lobortisauguescelerisque.ca|'Directeur'|Xs
Nicolas|Blackburn|at.sem.molestie@mattis.co.uk|mi.fringilla@auguescelerisquemollis.edu|'Directeur'|Gs
Antonin|Haney|lacus.Nulla.tincidunt@famesacturpis.co.uk|montes.nascetur@molestiedapibus.com|'Directeur'|Us
Tristan|Gibson|Mauris.vestibulum.neque@Phasellusvitae.org|enim@tempordiam.net|'Directeur'|Ws
Erwan|Paul|auctor.vitae.aliquet@scelerisquescelerisque.net|elit.Aliquam@tellussemmollis.edu|'Directeur'|Ms
Alexandre|Durham|semper@pharetraQuisqueac.co.uk|purus.Duis@vitaeposuereat.net|'Directeur'|Ms
Gabin|Johnson|purus.gravida@Morbi.edu|vel.arcu@ligulaNullam.ca|'Directeur'|Ds
Malo|Roman|massa.Quisque@mauris.org|Donec@quam.ca|'Directeur'|Vs
Aaron|Jimenez|Nunc@nibh.edu|lorem.fringilla.ornare@eros.edu|'Directeur'|Xs
Arthur|Noble|semper.et.lacinia@massa.co.uk|erat@sit.net|'Directeur'|As
Théo|Romero|faucibus.ut.nulla@anunc.com|erat@maurisa.edu|'Directeur'|Es
Gabin|Bush|vitae.posuere@Nunclaoreetlectus.net|nisi.magna.sed@nibh.com|'Directeur'|Ts
Tom|Roth|nisi.Mauris.nulla@non.edu|enim.Mauris.quis@posuerecubilia.com|'Directeur'|Ss
Bastien|Mckee|ac.sem.ut@nonsapien.com|et.pede@nisiCumsociis.org|'Directeur'|Ds
Malo|Mcmahon|convallis.convallis.dolor@arcuSedet.com|Donec.tempus.lorem@Pellentesquehabitant.ca|'Directeur'|Ss
Noah|Patel|diam@Praesenteunulla.edu|Nam.ac@quamquis.ca|'Directeur'|Ws
Kevin|Brewer|sagittis@mauris.edu|pede.Nunc@nisi.com|'Directeur'|Xs
Mohamed|Casey|lacus@augue.ca|dictum@arcuSedet.org|'Directeur'|Is
Mathéo|Rollins|nonummy@adipiscing.net|Sed@amet.org|'Directeur'|Ds
Gaspard|Frank|vel.mauris@feugiatnecdiam.org|sed.consequat.auctor@magna.net|'Directeur'|Vs
Enzo|Warner|erat.Vivamus.nisi@etnetus.org|felis@nisiCumsociis.org|'Directeur'|Ys
Esteban|Duran|Integer.sem.elit@hendreritaarcu.ca|quam@etmagnisdis.net|'Directeur'|As
Roméo|Walls|scelerisque@aultriciesadipiscing.net|sodales.nisi.magna@ultriciessemmagna.net|'Directeur'|Ps
Léon|Gentry|sociis.natoque@gravidamaurisut.co.uk|vitae.velit.egestas@erateget.com|'Directeur'|Fs
Félix|Rollins|Curae.Donec.tincidunt@elitNulla.com|odio.vel.est@eratsemperrutrum.co.uk|'Directeur'|Es
Mathis|Gillespie|non.luctus@nibhDonec.co.uk|nisi@turpisAliquam.net|'Directeur'|Is
Arthur|Noble|mi.eleifend@Quisque.org|hendrerit.a.arcu@mus.net|'Directeur'|Us
Esteban|Odonnell|ut.nisi.a@rutrummagna.edu|at.lacus@felisDonec.ca|'Directeur'|Fs
Timothée|Mercado|mi@ipsum.co.uk|turpis.In.condimentum@Duissit.org|'Directeur'|Ls
Enzo|Herman|accumsan@ornareFuscemollis.net|sem.vitae@dapibus.org|'Directeur'|Ts
Antonin|Vang|sollicitudin.commodo.ipsum@nonjustoProin.net|et@nonleo.org|'Directeur'|Es
Rémi|Reeves|Duis.volutpat.nunc@risusDuis.com|Phasellus.in@vitaeodiosagittis.com|'Directeur'|Fs
Kevin|Duffy|at.nisi@sed.ca|ipsum.leo.elementum@malesuadaaugue.ca|'Directeur'|Us
Antonin|Whitley|neque@euplacerat.com|facilisis@semper.ca|'Directeur'|Ss
Jordan|Luna|elit.elit.fermentum@Aliquamadipiscing.net|hendrerit.consectetuer.cursus@purusNullamscelerisque.net|'Directeur'|Gs
Malik|Bauer|tempor.bibendum@amet.edu|nisi.dictum.augue@bibendumfermentum.edu|'Directeur'|Cs
Yanis|Rose|Proin.non.massa@diam.org|Nulla.semper@Aeneanegetmetus.net|'Directeur'|Ks
Théo|Little|id.sapien.Cras@Integervulputaterisus.co.uk|mauris.elit.dictum@euismodac.com|'Directeur'|Is
Florian|Tillman|Nulla@imperdiet.com|feugiat@porttitor.net|'Directeur'|Os
Timothée|Mooney|accumsan.interdum@lacuspedesagittis.net|nonummy@eros.edu|'Directeur'|Xs
Cédric|Barron|lorem@ligulaNullam.net|et@dictumcursusNunc.edu|'Directeur'|Gs
Cédric|Washington|pharetra@odiovel.ca|eget.odio.Aliquam@Nuncmauriselit.org|'Directeur'|Xs
Thibault|Castaneda|magna@eratinconsectetuer.ca|Proin.non@Crasdolor.org|'Directeur'|Ts
Kevin|Brooks|sem@ornare.edu|ante.Vivamus.non@Praesentluctus.edu|'Directeur'|Ys
Nolan|Hanson|nunc@consequat.ca|arcu.imperdiet.ullamcorper@Etiamvestibulum.ca|'Directeur'|Cs
Kevin|Carter|pede.Cum.sociis@eu.net|consectetuer.adipiscing.elit@sed.org|'Directeur'|Us
Florian|Mcbride|eget@at.co.uk|Sed@nec.com|'Directeur'|Ds
Valentin|Blanchard|ac@Maurisvelturpis.edu|Lorem.ipsum@nonloremvitae.ca|'Directeur'|As
Dorian|Hurst|felis.Donec.tempor@arcu.org|blandit@Curabitur.org|'Directeur'|Ss
Simon|Gonzales|nibh@eu.edu|facilisis.facilisis@liberoduinec.net|'Directeur'|Bs
Kevin|Wooten|et.netus.et@Duis.edu|Ut@estMauriseu.ca|'Directeur'|Es
Tristan|Erickson|urna@velconvallisin.co.uk|elit@Duisami.org|'Directeur'|Cs
Yanis|Justice|amet@luctussit.co.uk|dui@Sedeunibh.com|'Directeur'|Qs
Jules|Ray|orci@parturientmontes.net|nunc.nulla@quam.co.uk|'Directeur'|Qs
Mathieu|Tyson|Donec.luctus.aliquet@sedleo.com|tellus@etmalesuadafames.com|'Directeur'|Fs
Gabriel|Stark|a.mi@ipsumsodales.org|eu@ipsum.org|'Directeur'|As
Malik|Greene|sit.amet@placerat.ca|dolor.Fusce@metus.org|'Directeur'|Ks
Romain|Patrick|mattis.Cras.eget@elit.org|interdum.Nunc.sollicitudin@etultricesposuere.org|'Directeur'|Gs
Mohamed|Richmond|gravida.molestie@magnaNamligula.edu|eu.ultrices.sit@semmagna.org|'Directeur'|Ys
Martin|Witt|Donec.non@facilisisnon.org|vitae@tempusnon.net|'Directeur'|Cs
Léon|Leon|malesuada@elit.edu|aliquet@a.org|'Directeur'|Gs
Félix|Bowers|lorem@commodohendrerit.org|porttitor.vulputate.posuere@luctusetultrices.org|'Directeur'|Fs
Guillaume|Riggs|felis.ullamcorper.viverra@neque.co.uk|imperdiet.erat@estMauriseu.org|'Directeur'|Vs
Mathéo|Logan|Phasellus.elit.pede@urnaVivamusmolestie.co.uk|id@faucibuslectus.co.uk|'Directeur'|Vs
Mattéo|Kidd|massa.rutrum@semperetlacinia.org|lacinia.vitae.sodales@molestie.co.uk|'Directeur'|Es
Constant|Harper|orci@massaQuisque.net|risus.a@dictumplacerataugue.net|'Directeur'|Ss
Dimitri|Stevenson|felis.eget@massarutrummagna.com|tempor.lorem@dapibusid.co.uk|'Directeur'|Zs
Dylan|Drake|diam@luctus.edu|molestie.arcu.Sed@utsemNulla.net|'Directeur'|Ks
Louis|Henderson|Fusce@aliquetlobortis.ca|risus@ametconsectetuer.net|'Directeur'|Cs
Davy|Mejia|dolor@primisin.edu|adipiscing@sociisnatoque.ca|'Directeur'|Rs
Corentin|Baxter|eu.dolor.egestas@Morbi.edu|nascetur@molestie.co.uk|'Directeur'|Is
Dorian|Barrera|dignissim.pharetra.Nam@Nunc.com|magna.Phasellus.dolor@mollisvitae.com|'Directeur'|Gs
Valentin|Larsen|quis.tristique@elita.org|pede@eu.com|'Directeur'|Cs
Marwane|Cervantes|ultricies.ligula.Nullam@interdumligulaeu.co.uk|nec.tempus.mauris@eu.org|'Directeur'|Ws
Adrien|Holloway|vel@rhoncus.co.uk|Nulla.semper.tellus@erat.co.uk|'Directeur'|Vs
Kylian|Trujillo|eu.tellus@a.net|ornare.libero.at@pulvinar.org|'Directeur'|Rs
Robin|Charles|dolor.quam.elementum@lobortis.co.uk|dolor.quam@necurna.com|'Directeur'|Cs
Guillaume|Pope|Nulla.facilisis.Suspendisse@luctus.net|ut.nulla@ipsumcursus.edu|'Directeur'|Zs
Noah|Gillespie|vitae.dolor@ornare.net|lorem.luctus.ut@pedeacurna.org|'Directeur'|Cs
Alexis|Oneill|Vestibulum.accumsan@fermentum.net|Aenean.massa.Integer@commodo.net|'Directeur'|Hs
Antonin|Harris|luctus.et.ultrices@estNunc.com|pede@aliquamiaculis.ca|'Directeur'|Fs
Maxime|Byrd|risus@magnanecquam.edu|tempor.lorem@ullamcorper.org|'Directeur'|Os
Cédric|Bryant|pellentesque.Sed@aliquet.ca|dictum@ornare.ca|'Directeur'|Ms
Yanis|Golden|lectus@elitfermentumrisus.edu|Duis.sit@egestas.com|'Directeur'|Vs
Antoine|Manning|ullamcorper@ipsumleoelementum.co.uk|eu@mauris.edu|'Directeur'|Js
Kevin|Lucas|pede.ultrices.a@tortorat.co.uk|luctus@risusatfringilla.co.uk|'Directeur'|Es
Colin|Keith|at@Phasellus.ca|velit.Quisque@Donecnibh.co.uk|'Directeur'|Ss
Gabriel|William|at@neque.net|Mauris.non@Nulla.com|'Directeur'|Rs
Lorenzo|Hurley|quam.Curabitur@ante.net|sed.leo@montesnasceturridiculus.org|'Directeur'|Os
Lucas|Marks|arcu@quamafelis.co.uk|sociis@massaSuspendisseeleifend.org|'Directeur'|Cs
Yohan|Bowers|dui.in@vitae.org|risus.Donec@et.net|'Directeur'|Zs
Gilbert|Mendez|fringilla.est@etrutrumnon.co.uk|luctus@consectetuer.co.uk|'Directeur'|Cs
Anthony|Baker|Nullam.vitae.diam@maurisaliquameu.co.uk|Nam.porttitor@Vestibulumuteros.org|'Directeur'|Ms
Quentin|Diaz|pharetra.Nam@utlacus.net|Sed.nunc.est@quispedeSuspendisse.com|'Directeur'|Ps
Enzo|Fernandez|Integer@anteVivamusnon.ca|quam.elementum.at@turpis.net|'Directeur'|Es
Dimitri|Ross|dignissim.pharetra.Nam@odio.co.uk|cursus.non@Aliquamornarelibero.ca|'Directeur'|Cs
Mathéo|Curry|aliquet@Nullam.ca|commodo@Integer.edu|'Directeur'|Gs